[
  {
    "id": "238728915647070209",
    "avatar": "https://cdn.discordapp.com/avatars/238728915647070209/ddc118d0cc427a99a5f9d6f3389f7555.png",
    "username": "0×4a69726b61",
    "nickname": "Hex"
  },
  {
    "id": "938743974808666113",
    "avatar": "https://i.imgur.com/VqzvXZ1.png",
    "username": "Arsh",
    "nickname": "Arsh"
  },
  {
    "id": "921667510531678228",
    "avatar": "https://cdn.discordapp.com/avatars/921667510531678228/820a7e76f3fbd401995cd62b69ecc19a.png",
    "username": "Beano",
    "nickname": "Beano"
  },
  {
    "id": "817114336275202058",
    "avatar": "https://cdn.discordapp.com/avatars/817114336275202058/6056989d3a60b9451810e4e52bb66b85.png",
    "username": "Brown Recluse Nox♡",
    "nickname": "❄Mistlehoe❄"
  },
  {
    "id": "407277640785854465",
    "avatar": "https://cdn.discordapp.com/avatars/407277640785854465/083eaf78574bf44d469e754898886f66.png",
    "username": "Buckets",
    "nickname": "Buckets"
  },
  {
    "id": "589443984804544523",
    "avatar": "https://cdn.discordapp.com/avatars/589443984804544523/bf3c313b192085b6e0e47f024bc04c20.png",
    "username": "Dr Tim",
    "nickname": "Dr.Tim"
  },
  {
    "id": "915492227009097809",
    "avatar": "https://cdn.discordapp.com/avatars/915492227009097809/289aae78040de3ab71f723eb11c2bf9b.png",
    "username": "Dr.Daredevil",
    "nickname": "thebettyoftheotherbetty"
  },
  {
    "id": "710331467716231218",
    "avatar": "https://cdn.discordapp.com/avatars/710331467716231218/426dd70973a5bb3855eef7b47ce4f725.png",
    "username": "Ey",
    "nickname": "Asdas's substitute! geez🐢"
  },
  {
    "id": "319071281771446282",
    "avatar": "https://cdn.discordapp.com/avatars/319071281771446282/656c6262bc300926e2bffefecdea141e.png",
    "username": "Fuzzy",
    "nickname": "Fuzzer"
  },
  {
    "id": "849272339295240203",
    "avatar": "https://cdn.discordapp.com/avatars/849272339295240203/34efb21288455b1b7fbe53f0af9c80d1.png",
    "username": "Hash",
    "nickname": "Hash"
  },
  {
    "id": "277938655690227713",
    "avatar": "https://cdn.discordapp.com/avatars/277938655690227713/cf2c8855ce2554ddda8d2c1522e71dcd.png",
    "username": "Kanra",
    "nickname": "Dooby"
  },
  {
    "id": "140181612997378049",
    "avatar": "https://cdn.discordapp.com/avatars/140181612997378049/96de0f42f03c948ea6a0f959cf59685d.png",
    "username": "Kelamcı Kedi",
    "nickname": "Puncake"
  },
  {
    "id": "804201095353729064",
    "avatar": "https://cdn.discordapp.com/avatars/804201095353729064/2bab0df78339ccde0c134b1525b0fec4.png",
    "username": "Kitty__",
    "nickname": "Kitty"
  },
  {
    "id": "607025519174877187",
    "avatar": "https://cdn.discordapp.com/avatars/607025519174877187/d431eb2c423aaf6649e62a539781ef1e.png",
    "username": "Koko",
    "nickname": "Koko"
  },
  {
    "id": "1030766071747198976",
    "avatar": "https://i.imgur.com/VqzvXZ1.png",
    "username": "Leyla",
    "nickname": "Leyla"
  },
  {
    "id": "693898392849612871",
    "avatar": "https://cdn.discordapp.com/avatars/693898392849612871/4d89c9c9861faea1a0602191a8e7c44f.png",
    "username": "Litsea Cubeba",
    "nickname": "Litsea Cubeba"
  },
  {
    "id": "236479488865599488",
    "avatar": "https://cdn.discordapp.com/avatars/236479488865599488/e7c969a1a9e710abe813ed6fe3d2b558.png",
    "username": "Moloch",
    "nickname": "Moloch"
  },
  {
    "id": "868482162960248853",
    "avatar": "https://cdn.discordapp.com/avatars/868482162960248853/1a0b384ce913a26d8012696ad24ea4b6.png",
    "username": "Padfoot",
    "nickname": "Padfoot"
  },
  {
    "id": "730621821178871828",
    "avatar": "https://cdn.discordapp.com/avatars/730621821178871828/221ebfc39b0ae84faa71b93bfe3a6c38.png",
    "username": "Puzzlid",
    "nickname": "Vyeko"
  },
  {
    "id": "818096911838871552",
    "avatar": "https://cdn.discordapp.com/avatars/818096911838871552/80105fb9748a95308d3a3318e104b4e7.png",
    "username": "RandomDudeEver",
    "nickname": "RandomDudeEver"
  },
  {
    "id": "753043560592572486",
    "avatar": "https://cdn.discordapp.com/avatars/753043560592572486/fd069348b83d151de5b931bdc5a77dcd.png",
    "username": "Rickg11890",
    "nickname": "Rickg11890"
  },
  {
    "id": "691786035167887431",
    "avatar": "https://cdn.discordapp.com/avatars/691786035167887431/00a82272d57fbdf6051833c266cc28bf.png",
    "username": "Sankt Nikelaus",
    "nickname": "Sankt Nikelaus"
  },
  {
    "id": "549036794105298945",
    "avatar": "https://cdn.discordapp.com/avatars/549036794105298945/22f023a3069a7110875ba7d0abbcc6dc.png",
    "username": "Sarahjane",
    "nickname": "SJ"
  },
  {
    "id": "784025106149539841",
    "avatar": "https://cdn.discordapp.com/avatars/784025106149539841/5623b047e7d7467a6515c7e65d37fd16.png",
    "username": "Teldarin",
    "nickname": "Toan"
  },
  {
    "id": "866303337929113611",
    "avatar": "https://cdn.discordapp.com/avatars/866303337929113611/78d32cda4c120ccb4a246e34cdc56b2d.png",
    "username": "Totoro",
    "nickname": "Totoro"
  },
  {
    "id": "719014268447490151",
    "avatar": "https://cdn.discordapp.com/avatars/719014268447490151/b6be04045916e94e6bd7cc802b57e695.png",
    "username": "YamYamV",
    "nickname": "hanzdyingsomewhereagain"
  },
  {
    "id": "502369086311890944",
    "avatar": "https://i.imgur.com/VqzvXZ1.png",
    "username": "Zofes",
    "nickname": "Zofes"
  },
  {
    "id": "1014208174028488796",
    "avatar": "https://cdn.discordapp.com/avatars/1014208174028488796/8ef87317a7cc76cecdcff1c89bd435a3.png",
    "username": "_xyz_",
    "nickname": "_xyz_"
  },
  {
    "id": "915334768680374322",
    "avatar": "https://cdn.discordapp.com/avatars/915334768680374322/465f38102e6bded7f0a95b059fe1e22c.png",
    "username": "bettyenteringrealityagain",
    "nickname": "bettyenteringrealityagain"
  },
  {
    "id": "807317005996130394",
    "avatar": "https://cdn.discordapp.com/avatars/807317005996130394/a8e454576c6932d18ea0ac105c91a8c1.png",
    "username": "broerstlyko",
    "nickname": "broerstlyko"
  },
  {
    "id": "618598255747399681",
    "avatar": "https://cdn.discordapp.com/avatars/618598255747399681/51d05bac163572603145c3d8dfcfa669.png",
    "username": "emm",
    "nickname": "emm"
  },
  {
    "id": "604477246723325953",
    "avatar": "https://cdn.discordapp.com/avatars/604477246723325953/506fe087948138d71be0faffb99a50b4.png",
    "username": "isaiahmoses767",
    "nickname": "isaiahmoses767"
  },
  {
    "id": "758598801966497802",
    "avatar": "https://cdn.discordapp.com/avatars/758598801966497802/a5386bbb287f4d619a7a31b4c2e9e99e.png",
    "username": "kombucha",
    "nickname": "kombucha"
  },
  {
    "id": "529324737428455425",
    "avatar": "https://cdn.discordapp.com/avatars/529324737428455425/f03c841c1b724c0cbca0ad2a74c89c57.png",
    "username": "momchi",
    "nickname": "momch"
  },
  {
    "id": "950301016472043520",
    "avatar": "https://cdn.discordapp.com/avatars/950301016472043520/1914d80e89a9b6a6b82793da779c95c6.png",
    "username": "nub",
    "nickname": "nub"
  },
  {
    "id": "388617664462979072",
    "avatar": "https://cdn.discordapp.com/avatars/388617664462979072/228ccaac366f59d72d466fb750102c8b.png",
    "username": "satoneken",
    "nickname": "satoneken 🇻🇳"
  },
  {
    "id": "537975587248013312",
    "avatar": "https://cdn.discordapp.com/avatars/537975587248013312/176e95e32bbf64cf3cc900adaddf66df.png",
    "username": "shrff",
    "nickname": "shrff"
  },
  {
    "id": "341382880662126592",
    "avatar": "https://cdn.discordapp.com/avatars/341382880662126592/9eb6829b7089b29b1962675fa9678da6.png",
    "username": "tia🦔",
    "nickname": "tia🦔"
  },
  {
    "id": "1007529396057419789",
    "avatar": "https://cdn.discordapp.com/avatars/1007529396057419789/b99e34ece9a65e81a6ccf685bab419ba.png",
    "username": "wisTea",
    "nickname": "momyy"
  },
  {
    "id": "528372248453578774",
    "avatar": "https://cdn.discordapp.com/avatars/528372248453578774/12f8e8529916f2ab97a6e6859396016d.png",
    "username": "̶m̶ō̶i̶ ̶t̶r̶i̶p̶a̶",
    "nickname": "̶m̶ō̶i̶ ̶t̶r̶i̶p̶a̶"
  },
  {
    "id": "669755743272173588",
    "avatar": "https://cdn.discordapp.com/avatars/669755743272173588/5e4ec528e19a8c1d2c3a728e14750586.png",
    "username": "๖Katara๖",
    "nickname": "Cereal Killer"
  }
]
